0000.000 (0) Opened log file at time: Tue, 12 Oct 2021 07:00:17 +0000 on https://abcgroupintl.dev.fegno.com
0000.006 (0) [Warning] The amount of memory (RAM) allowed for PHP is very low (48 Mb) - you should increase it to avoid failures due to insufficient memory (consult your web hosting company for more help)
0000.011 (0) UpdraftPlus WordPress backup plugin (https://updraftplus.com): 1.16.26 WP: 5.4.2 PHP: 7.2.33-1+ubuntu18.04.1+deb.sury.org+1 (fpm-fcgi, Linux devserver 5.4.0-1049-aws #51~18.04.1-Ubuntu SMP Fri May 14 18:38:46 UTC 2021 x86_64) MySQL: 5.7.35-0ubuntu0.18.04.1 WPLANG: en_US Server: nginx/1.19.0 safe_mode: 0 max_execution_time: 900 memory_limit: 48M (used: 6.3M | 2M) multisite: N openssl: OpenSSL 1.1.1g  21 Apr 2020 mcrypt: N LANG:  ZipArchive::addFile: Y
0000.014 (0) Free space on disk containing Updraft's temporary directory: 18718.6 MB
0000.023 (0) Tasks: Backup files: 1 (schedule: daily) Backup DB:  (schedule: daily)
0000.025 (0) Processed schedules. Combining jobs from identical schedules. Tasks now: Backup files: 1 Backup DB: 1
0000.046 (0) Requesting semaphore lock (fd) (apparently via scheduler: last_scheduled_action_called_at=1633935470, seconds_ago=86547)
0000.069 (0) Set semaphore last lock (fd) time to 2021-10-12 07:00:17
0000.072 (0) Semaphore lock (fd) complete
0000.079 (0) Backup run: resumption=0, nonce=69a300785c9c, file_nonce=69a300785c9c begun at=1634022017 (0s ago), job type=backup
0000.084 (0) Scheduling a resumption (1) after 300 seconds (1634022317) in case this run gets aborted
0000.109 (0) Checking if we have a zip executable available
0000.113 (0) Testing: /usr/bin/zip
0000.138 (0) Output: zip warning: binziptest/test.zip not found or empty
0000.143 (0) Output: adding: binziptest/subdir1/	(in=0) (out=0) (stored 0%)
0000.148 (0) Output: adding: binziptest/subdir1/subdir2/	(in=0) (out=0) (stored 0%)
0000.152 (0) Output: adding: binziptest/subdir1/subdir2/test.html	(in=131) (out=107) (deflated 18%)
0000.155 (0) Output: total bytes=131, compressed=107 -> 18% savings
0000.171 (0) Output: adding: binziptest/subdir1/subdir2/test2.html	(in=138) (out=113) (deflated 18%)
0000.179 (0) Output: total bytes=269, compressed=220 -> 18% savings
0000.217 (0) Working binary zip found: /usr/bin/zip
0000.230 (0) Zip engine: found/will use a binary zip: /usr/bin/zip
0000.235 (0) Creation of backups of directories: beginning
0000.245 (0) Beginning creation of dump of plugins (split every: 400 MB)
0000.670 (0) Total entities for the zip file: 663 directories, 5272 files (0 skipped as non-modified), 70.1 MB
0000.681 (0) Zip: backup_2021-10-12-0700_ABC_Group_International_69a300785c9c-plugins.zip.tmp: 100 files added (on-disk size: 0 KB)
0000.697 (0) Zip: backup_2021-10-12-0700_ABC_Group_International_69a300785c9c-plugins.zip.tmp: 200 files added (on-disk size: 0 KB)
0000.707 (0) Zip: backup_2021-10-12-0700_ABC_Group_International_69a300785c9c-plugins.zip.tmp: 300 files added (on-disk size: 0 KB)
0000.715 (0) Zip: backup_2021-10-12-0700_ABC_Group_International_69a300785c9c-plugins.zip.tmp: 400 files added (on-disk size: 0 KB)
0000.725 (0) Zip: backup_2021-10-12-0700_ABC_Group_International_69a300785c9c-plugins.zip.tmp: 500 files added (on-disk size: 0 KB)
0000.728 (0) Adding batch to zip file (UpdraftPlus_BinZip): over 500 files added on this batch (1.8 MB, 5272 files batched, 501 (501) added so far); re-opening (prior size: 0 KB)
0001.171 (0) backup_2021-10-12-0700_ABC_Group_International_69a300785c9c-plugins.zip.tmp: size is now: 1.00 MB
0001.180 (0) Zip: backup_2021-10-12-0700_ABC_Group_International_69a300785c9c-plugins.zip.tmp: 600 files added (on-disk size: 1057.4 KB)
0001.187 (0) Zip: backup_2021-10-12-0700_ABC_Group_International_69a300785c9c-plugins.zip.tmp: 700 files added (on-disk size: 1057.4 KB)
0001.194 (0) Zip: backup_2021-10-12-0700_ABC_Group_International_69a300785c9c-plugins.zip.tmp: 800 files added (on-disk size: 1057.4 KB)
0001.202 (0) Zip: backup_2021-10-12-0700_ABC_Group_International_69a300785c9c-plugins.zip.tmp: 900 files added (on-disk size: 1057.4 KB)
0001.209 (0) Zip: backup_2021-10-12-0700_ABC_Group_International_69a300785c9c-plugins.zip.tmp: 1000 files added (on-disk size: 1057.4 KB)
0001.212 (0) Adding batch to zip file (UpdraftPlus_BinZip): over 500 files added on this batch (1.5 MB, 5272 files batched, 501 (1002) added so far); re-opening (prior size: 1057.4 KB)
0001.581 (0) backup_2021-10-12-0700_ABC_Group_International_69a300785c9c-plugins.zip.tmp: size is now: 1.90 MB
0001.593 (0) Zip: backup_2021-10-12-0700_ABC_Group_International_69a300785c9c-plugins.zip.tmp: 1100 files added (on-disk size: 1919 KB)
0001.600 (0) Zip: backup_2021-10-12-0700_ABC_Group_International_69a300785c9c-plugins.zip.tmp: 1200 files added (on-disk size: 1919 KB)
0001.607 (0) Zip: backup_2021-10-12-0700_ABC_Group_International_69a300785c9c-plugins.zip.tmp: 1300 files added (on-disk size: 1919 KB)
0001.615 (0) Zip: backup_2021-10-12-0700_ABC_Group_International_69a300785c9c-plugins.zip.tmp: 1400 files added (on-disk size: 1919 KB)
0001.624 (0) Zip: backup_2021-10-12-0700_ABC_Group_International_69a300785c9c-plugins.zip.tmp: 1500 files added (on-disk size: 1919 KB)
0001.627 (0) Adding batch to zip file (UpdraftPlus_BinZip): over 500 files added on this batch (4.5 MB, 5272 files batched, 501 (1503) added so far); re-opening (prior size: 1919 KB)
0002.227 (0) backup_2021-10-12-0700_ABC_Group_International_69a300785c9c-plugins.zip.tmp: size is now: 4.40 MB
0002.239 (0) Zip: backup_2021-10-12-0700_ABC_Group_International_69a300785c9c-plugins.zip.tmp: 1600 files added (on-disk size: 4554.7 KB)
0002.246 (0) Zip: backup_2021-10-12-0700_ABC_Group_International_69a300785c9c-plugins.zip.tmp: 1700 files added (on-disk size: 4554.7 KB)
0002.253 (0) Zip: backup_2021-10-12-0700_ABC_Group_International_69a300785c9c-plugins.zip.tmp: 1800 files added (on-disk size: 4554.7 KB)
0002.260 (0) Zip: backup_2021-10-12-0700_ABC_Group_International_69a300785c9c-plugins.zip.tmp: 1900 files added (on-disk size: 4554.7 KB)
0002.267 (0) Zip: backup_2021-10-12-0700_ABC_Group_International_69a300785c9c-plugins.zip.tmp: 2000 files added (on-disk size: 4554.7 KB)
0002.270 (0) Adding batch to zip file (UpdraftPlus_BinZip): over 500 files added on this batch (9.1 MB, 5272 files batched, 501 (2004) added so far); re-opening (prior size: 4554.7 KB)
0002.904 (0) backup_2021-10-12-0700_ABC_Group_International_69a300785c9c-plugins.zip.tmp: size is now: 7.60 MB
0002.916 (0) Zip: backup_2021-10-12-0700_ABC_Group_International_69a300785c9c-plugins.zip.tmp: 2100 files added (on-disk size: 7762.3 KB)
0002.924 (0) Zip: backup_2021-10-12-0700_ABC_Group_International_69a300785c9c-plugins.zip.tmp: 2200 files added (on-disk size: 7762.3 KB)
0002.932 (0) Zip: backup_2021-10-12-0700_ABC_Group_International_69a300785c9c-plugins.zip.tmp: 2300 files added (on-disk size: 7762.3 KB)
0002.939 (0) Zip: backup_2021-10-12-0700_ABC_Group_International_69a300785c9c-plugins.zip.tmp: 2400 files added (on-disk size: 7762.3 KB)
0002.946 (0) Zip: backup_2021-10-12-0700_ABC_Group_International_69a300785c9c-plugins.zip.tmp: 2500 files added (on-disk size: 7762.3 KB)
0002.949 (0) Adding batch to zip file (UpdraftPlus_BinZip): over 500 files added on this batch (9 MB, 5272 files batched, 501 (2505) added so far); re-opening (prior size: 7762.3 KB)
0003.580 (0) backup_2021-10-12-0700_ABC_Group_International_69a300785c9c-plugins.zip.tmp: size is now: 9.50 MB
0003.591 (0) Zip: backup_2021-10-12-0700_ABC_Group_International_69a300785c9c-plugins.zip.tmp: 2600 files added (on-disk size: 9721.7 KB)
0003.598 (0) Zip: backup_2021-10-12-0700_ABC_Group_International_69a300785c9c-plugins.zip.tmp: 2700 files added (on-disk size: 9721.7 KB)
0003.605 (0) Zip: backup_2021-10-12-0700_ABC_Group_International_69a300785c9c-plugins.zip.tmp: 2800 files added (on-disk size: 9721.7 KB)
0003.612 (0) Zip: backup_2021-10-12-0700_ABC_Group_International_69a300785c9c-plugins.zip.tmp: 2900 files added (on-disk size: 9721.7 KB)
0003.620 (0) Zip: backup_2021-10-12-0700_ABC_Group_International_69a300785c9c-plugins.zip.tmp: 3000 files added (on-disk size: 9721.7 KB)
0003.623 (0) Adding batch to zip file (UpdraftPlus_BinZip): over 500 files added on this batch (8 MB, 5272 files batched, 501 (3006) added so far); re-opening (prior size: 9721.7 KB)
0004.217 (0) backup_2021-10-12-0700_ABC_Group_International_69a300785c9c-plugins.zip.tmp: size is now: 12.50 MB
0004.230 (0) Zip: backup_2021-10-12-0700_ABC_Group_International_69a300785c9c-plugins.zip.tmp: 3100 files added (on-disk size: 12773.7 KB)
0004.240 (0) Zip: backup_2021-10-12-0700_ABC_Group_International_69a300785c9c-plugins.zip.tmp: 3200 files added (on-disk size: 12773.7 KB)
0004.247 (0) Zip: backup_2021-10-12-0700_ABC_Group_International_69a300785c9c-plugins.zip.tmp: 3300 files added (on-disk size: 12773.7 KB)
0004.255 (0) Zip: backup_2021-10-12-0700_ABC_Group_International_69a300785c9c-plugins.zip.tmp: 3400 files added (on-disk size: 12773.7 KB)
0004.262 (0) Zip: backup_2021-10-12-0700_ABC_Group_International_69a300785c9c-plugins.zip.tmp: 3500 files added (on-disk size: 12773.7 KB)
0004.265 (0) Adding batch to zip file (UpdraftPlus_BinZip): over 500 files added on this batch (16.4 MB, 5272 files batched, 501 (3507) added so far); re-opening (prior size: 12773.7 KB)
0005.531 (0) backup_2021-10-12-0700_ABC_Group_International_69a300785c9c-plugins.zip.tmp: size is now: 16.80 MB
0005.542 (0) Zip: backup_2021-10-12-0700_ABC_Group_International_69a300785c9c-plugins.zip.tmp: 3600 files added (on-disk size: 17237.5 KB)
0005.549 (0) Zip: backup_2021-10-12-0700_ABC_Group_International_69a300785c9c-plugins.zip.tmp: 3700 files added (on-disk size: 17237.5 KB)
0005.556 (0) Zip: backup_2021-10-12-0700_ABC_Group_International_69a300785c9c-plugins.zip.tmp: 3800 files added (on-disk size: 17237.5 KB)
0005.564 (0) Zip: backup_2021-10-12-0700_ABC_Group_International_69a300785c9c-plugins.zip.tmp: 3900 files added (on-disk size: 17237.5 KB)
0005.571 (0) Zip: backup_2021-10-12-0700_ABC_Group_International_69a300785c9c-plugins.zip.tmp: 4000 files added (on-disk size: 17237.5 KB)
0005.575 (0) Adding batch to zip file (UpdraftPlus_BinZip): over 500 files added on this batch (1.6 MB, 5272 files batched, 501 (4008) added so far); re-opening (prior size: 17237.5 KB)
0005.963 (0) Zip: backup_2021-10-12-0700_ABC_Group_International_69a300785c9c-plugins.zip.tmp: 4100 files added (on-disk size: 17969.3 KB)
0005.971 (0) Zip: backup_2021-10-12-0700_ABC_Group_International_69a300785c9c-plugins.zip.tmp: 4200 files added (on-disk size: 17969.3 KB)
0005.978 (0) Zip: backup_2021-10-12-0700_ABC_Group_International_69a300785c9c-plugins.zip.tmp: 4300 files added (on-disk size: 17969.3 KB)
0005.985 (0) Zip: backup_2021-10-12-0700_ABC_Group_International_69a300785c9c-plugins.zip.tmp: 4400 files added (on-disk size: 17969.3 KB)
0005.992 (0) Zip: backup_2021-10-12-0700_ABC_Group_International_69a300785c9c-plugins.zip.tmp: 4500 files added (on-disk size: 17969.3 KB)
0005.995 (0) Adding batch to zip file (UpdraftPlus_BinZip): over 500 files added on this batch (8.8 MB, 5272 files batched, 501 (4509) added so far); re-opening (prior size: 17969.3 KB)
0006.642 (0) Zip: backup_2021-10-12-0700_ABC_Group_International_69a300785c9c-plugins.zip.tmp: 4600 files added (on-disk size: 20044.5 KB)
0006.650 (0) Zip: backup_2021-10-12-0700_ABC_Group_International_69a300785c9c-plugins.zip.tmp: 4700 files added (on-disk size: 20044.5 KB)
0006.658 (0) Zip: backup_2021-10-12-0700_ABC_Group_International_69a300785c9c-plugins.zip.tmp: 4800 files added (on-disk size: 20044.5 KB)
0006.665 (0) Zip: backup_2021-10-12-0700_ABC_Group_International_69a300785c9c-plugins.zip.tmp: 4900 files added (on-disk size: 20044.5 KB)
0006.672 (0) Zip: backup_2021-10-12-0700_ABC_Group_International_69a300785c9c-plugins.zip.tmp: 5000 files added (on-disk size: 20044.5 KB)
0006.675 (0) Adding batch to zip file (UpdraftPlus_BinZip): over 500 files added on this batch (5.9 MB, 5272 files batched, 501 (5010) added so far); re-opening (prior size: 20044.5 KB)
0007.299 (0) Zip: backup_2021-10-12-0700_ABC_Group_International_69a300785c9c-plugins.zip.tmp: 5100 files added (on-disk size: 21967 KB)
0007.306 (0) Zip: backup_2021-10-12-0700_ABC_Group_International_69a300785c9c-plugins.zip.tmp: 5200 files added (on-disk size: 21967 KB)
0007.932 (0) Created plugins zip (0) - 23347.2 KB in 7.7 s (3038.7 KB/s) (sha1: 7d2bf07a580a1aafd6f665d47a8126f877817b49, sha256: afea7dba78a9b64bd997d2212233c066fa161af3fd6b6dacff054de3fec62924)
0007.939 (0) Beginning creation of dump of themes (split every: 400 MB)
0007.965 (0) Total entities for the zip file: 56 directories, 257 files (0 skipped as non-modified), 6.2 MB
0007.973 (0) Zip: backup_2021-10-12-0700_ABC_Group_International_69a300785c9c-themes.zip.tmp: 100 files added (on-disk size: 0 KB)
0007.980 (0) Zip: backup_2021-10-12-0700_ABC_Group_International_69a300785c9c-themes.zip.tmp: 200 files added (on-disk size: 0 KB)
0008.368 (0) backup_2021-10-12-0700_ABC_Group_International_69a300785c9c-themes.zip.tmp: size is now: 2.70 MB
0008.410 (0) Created themes zip (0) - 2736.3 KB in 0.5 s (5822.7 KB/s) (sha1: 8eec93d51d2ce1ff037415e835136571514f4e4c, sha256: fea4587acad7f40d8954c8c73abe7f1d32e15716b3ce56140bb0c3ab7840fe1d)
0008.415 (0) Exclusion option setting (uploads): backup*,*backups,backwpup*,wp-clone,snapshots
0008.418 (0) Looking for candidates to backup in: /var/www/wp/abc_group_intl/wp-content/uploads
0008.419 (0) finding files: .htaccess: adding to list (1)
0008.422 (0) finding files: revslider: adding to list (2)
0008.423 (0) finding files: 2021: adding to list (3)
0008.426 (0) finding files: 2020: adding to list (4)
0008.427 (0) Beginning creation of dump of uploads (split every: 400 MB)
0008.556 (0) Total entities for the zip file: 21 directories, 4002 files (0 skipped as non-modified), 352.6 MB
0008.564 (0) Zip: backup_2021-10-12-0700_ABC_Group_International_69a300785c9c-uploads.zip.tmp: 100 files added (on-disk size: 0 KB)
0008.572 (0) Zip: backup_2021-10-12-0700_ABC_Group_International_69a300785c9c-uploads.zip.tmp: 200 files added (on-disk size: 0 KB)
0008.579 (0) Zip: backup_2021-10-12-0700_ABC_Group_International_69a300785c9c-uploads.zip.tmp: 300 files added (on-disk size: 0 KB)
0008.585 (0) Adding batch to zip file (UpdraftPlus_BinZip): over 25 MB added on this batch (25 MB, 4002 files batched, 363 (363) added so far); re-opening (prior size: 0 KB)
0009.055 (0) backup_2021-10-12-0700_ABC_Group_International_69a300785c9c-uploads.zip.tmp: size is now: 25.10 MB
0009.064 (0) A useful amount of data was added after this amount of zip processing: 1.2 s (normalised: 1.2 s, rate: 21875.7 KB/s)
0009.067 (0) Performance is good - will increase the amount of data we attempt to batch (time=1.1705050468445, normalised_time=1.1702499207193, max_time=9.0657579898834, data points known=1, old_max_bytes=26214400, new_max_bytes=134404110)
0009.074 (0) Zip: backup_2021-10-12-0700_ABC_Group_International_69a300785c9c-uploads.zip.tmp: 400 files added (on-disk size: 25688.2 KB)
0009.081 (0) Zip: backup_2021-10-12-0700_ABC_Group_International_69a300785c9c-uploads.zip.tmp: 500 files added (on-disk size: 25688.2 KB)
0009.088 (0) Zip: backup_2021-10-12-0700_ABC_Group_International_69a300785c9c-uploads.zip.tmp: 600 files added (on-disk size: 25688.2 KB)
0009.095 (0) Zip: backup_2021-10-12-0700_ABC_Group_International_69a300785c9c-uploads.zip.tmp: 700 files added (on-disk size: 25688.2 KB)
0009.102 (0) Zip: backup_2021-10-12-0700_ABC_Group_International_69a300785c9c-uploads.zip.tmp: 800 files added (on-disk size: 25688.2 KB)
0009.108 (0) Adding batch to zip file (UpdraftPlus_BinZip): over 500 files added on this batch (34.5 MB, 4002 files batched, 501 (864) added so far); re-opening (prior size: 25688.2 KB)
0009.915 (0) backup_2021-10-12-0700_ABC_Group_International_69a300785c9c-uploads.zip.tmp: size is now: 59.70 MB
0009.927 (0) Zip: backup_2021-10-12-0700_ABC_Group_International_69a300785c9c-uploads.zip.tmp: 900 files added (on-disk size: 61109.2 KB)
0009.935 (0) Zip: backup_2021-10-12-0700_ABC_Group_International_69a300785c9c-uploads.zip.tmp: 1000 files added (on-disk size: 61109.2 KB)
0009.942 (0) Zip: backup_2021-10-12-0700_ABC_Group_International_69a300785c9c-uploads.zip.tmp: 1100 files added (on-disk size: 61109.2 KB)
0009.949 (0) Zip: backup_2021-10-12-0700_ABC_Group_International_69a300785c9c-uploads.zip.tmp: 1200 files added (on-disk size: 61109.2 KB)
0009.962 (0) Zip: backup_2021-10-12-0700_ABC_Group_International_69a300785c9c-uploads.zip.tmp: 1300 files added (on-disk size: 61109.2 KB)
0009.969 (0) Adding batch to zip file (UpdraftPlus_BinZip): over 500 files added on this batch (37.1 MB, 4002 files batched, 501 (1365) added so far); re-opening (prior size: 61109.2 KB)
0010.789 (0) backup_2021-10-12-0700_ABC_Group_International_69a300785c9c-uploads.zip.tmp: size is now: 96.90 MB
0010.801 (0) Zip: backup_2021-10-12-0700_ABC_Group_International_69a300785c9c-uploads.zip.tmp: 1400 files added (on-disk size: 99275.5 KB)
0010.808 (0) Zip: backup_2021-10-12-0700_ABC_Group_International_69a300785c9c-uploads.zip.tmp: 1500 files added (on-disk size: 99275.5 KB)
0010.816 (0) Zip: backup_2021-10-12-0700_ABC_Group_International_69a300785c9c-uploads.zip.tmp: 1600 files added (on-disk size: 99275.5 KB)
0010.825 (0) Zip: backup_2021-10-12-0700_ABC_Group_International_69a300785c9c-uploads.zip.tmp: 1700 files added (on-disk size: 99275.5 KB)
0010.833 (0) Zip: backup_2021-10-12-0700_ABC_Group_International_69a300785c9c-uploads.zip.tmp: 1800 files added (on-disk size: 99275.5 KB)
0010.839 (0) Adding batch to zip file (UpdraftPlus_BinZip): over 500 files added on this batch (37.2 MB, 4002 files batched, 501 (1866) added so far); re-opening (prior size: 99275.5 KB)
0011.748 (0) backup_2021-10-12-0700_ABC_Group_International_69a300785c9c-uploads.zip.tmp: size is now: 134.20 MB
0011.759 (0) Zip: backup_2021-10-12-0700_ABC_Group_International_69a300785c9c-uploads.zip.tmp: 1900 files added (on-disk size: 137443.9 KB)
0011.766 (0) Zip: backup_2021-10-12-0700_ABC_Group_International_69a300785c9c-uploads.zip.tmp: 2000 files added (on-disk size: 137443.9 KB)
0011.774 (0) Zip: backup_2021-10-12-0700_ABC_Group_International_69a300785c9c-uploads.zip.tmp: 2100 files added (on-disk size: 137443.9 KB)
0011.781 (0) Zip: backup_2021-10-12-0700_ABC_Group_International_69a300785c9c-uploads.zip.tmp: 2200 files added (on-disk size: 137443.9 KB)
0011.788 (0) Zip: backup_2021-10-12-0700_ABC_Group_International_69a300785c9c-uploads.zip.tmp: 2300 files added (on-disk size: 137443.9 KB)
0011.794 (0) Adding batch to zip file (UpdraftPlus_BinZip): over 500 files added on this batch (34.7 MB, 4002 files batched, 501 (2367) added so far); re-opening (prior size: 137443.9 KB)
0013.612 (0) backup_2021-10-12-0700_ABC_Group_International_69a300785c9c-uploads.zip.tmp: size is now: 169.00 MB
0013.631 (0) Zip: backup_2021-10-12-0700_ABC_Group_International_69a300785c9c-uploads.zip.tmp: 2400 files added (on-disk size: 173099.2 KB)
0013.640 (0) Zip: backup_2021-10-12-0700_ABC_Group_International_69a300785c9c-uploads.zip.tmp: 2500 files added (on-disk size: 173099.2 KB)
0013.663 (0) Zip: backup_2021-10-12-0700_ABC_Group_International_69a300785c9c-uploads.zip.tmp: 2600 files added (on-disk size: 173099.2 KB)
0013.680 (0) Zip: backup_2021-10-12-0700_ABC_Group_International_69a300785c9c-uploads.zip.tmp: 2700 files added (on-disk size: 173099.2 KB)
0013.694 (0) Zip: backup_2021-10-12-0700_ABC_Group_International_69a300785c9c-uploads.zip.tmp: 2800 files added (on-disk size: 173099.2 KB)
0013.702 (0) Adding batch to zip file (UpdraftPlus_BinZip): over 500 files added on this batch (36.1 MB, 4002 files batched, 501 (2868) added so far); re-opening (prior size: 173099.2 KB)
0015.063 (0) backup_2021-10-12-0700_ABC_Group_International_69a300785c9c-uploads.zip.tmp: size is now: 205.30 MB
0015.074 (0) Zip: backup_2021-10-12-0700_ABC_Group_International_69a300785c9c-uploads.zip.tmp: 2900 files added (on-disk size: 210211.2 KB)
0015.083 (0) Zip: backup_2021-10-12-0700_ABC_Group_International_69a300785c9c-uploads.zip.tmp: 3000 files added (on-disk size: 210211.2 KB)
0015.091 (0) Zip: backup_2021-10-12-0700_ABC_Group_International_69a300785c9c-uploads.zip.tmp: 3100 files added (on-disk size: 210211.2 KB)
0015.101 (0) Zip: backup_2021-10-12-0700_ABC_Group_International_69a300785c9c-uploads.zip.tmp: 3200 files added (on-disk size: 210211.2 KB)
0015.109 (0) Zip: backup_2021-10-12-0700_ABC_Group_International_69a300785c9c-uploads.zip.tmp: 3300 files added (on-disk size: 210211.2 KB)
0015.116 (0) Adding batch to zip file (UpdraftPlus_BinZip): over 500 files added on this batch (64 MB, 4002 files batched, 501 (3369) added so far); re-opening (prior size: 210211.2 KB)
0017.647 (0) backup_2021-10-12-0700_ABC_Group_International_69a300785c9c-uploads.zip.tmp: size is now: 269.40 MB
0017.658 (0) Zip: backup_2021-10-12-0700_ABC_Group_International_69a300785c9c-uploads.zip.tmp: 3400 files added (on-disk size: 275849.6 KB)
0017.666 (0) Zip: backup_2021-10-12-0700_ABC_Group_International_69a300785c9c-uploads.zip.tmp: 3500 files added (on-disk size: 275849.6 KB)
0017.676 (0) Zip: backup_2021-10-12-0700_ABC_Group_International_69a300785c9c-uploads.zip.tmp: 3600 files added (on-disk size: 275849.6 KB)
0017.684 (0) Zip: backup_2021-10-12-0700_ABC_Group_International_69a300785c9c-uploads.zip.tmp: 3700 files added (on-disk size: 275849.6 KB)
0017.696 (0) Zip: backup_2021-10-12-0700_ABC_Group_International_69a300785c9c-uploads.zip.tmp: 3800 files added (on-disk size: 275849.6 KB)
0017.703 (0) Adding batch to zip file (UpdraftPlus_BinZip): over 500 files added on this batch (65.2 MB, 4002 files batched, 501 (3870) added so far); re-opening (prior size: 275849.6 KB)
0020.811 (0) backup_2021-10-12-0700_ABC_Group_International_69a300785c9c-uploads.zip.tmp: size is now: 334.70 MB
0020.822 (0) Zip: backup_2021-10-12-0700_ABC_Group_International_69a300785c9c-uploads.zip.tmp: 3900 files added (on-disk size: 342691.9 KB)
0020.833 (0) Zip: backup_2021-10-12-0700_ABC_Group_International_69a300785c9c-uploads.zip.tmp: 4000 files added (on-disk size: 342691.9 KB)
0028.042 (0) Created uploads zip (0) - 362077.7 KB in 19.6 s (18462 KB/s) (sha1: f6c0ea974455fe9e277ae983d314b378896c9cea, sha256: fbc63cbfbe356ce69577698bef56a082b17b58c97739015537cb27018b970471)
0028.045 (0) No backup of others: excluded by user's options
0028.058 (0) Saving backup status to database (elements: 6)
0028.066 (0) Beginning creation of database dump (WordPress DB)
0028.072 (0) Testing potential mysqldump binary: /usr/bin/mysqldump
0028.138 (0) Output: /*!40103 SET @OLD_TIME_ZONE=@@TIME_ZONE */;\n/*!40103 SET TIME_ZONE='+00:00' */;\n/*!40014 SET @OLD_UNIQUE_CHECKS=@@UNIQUE_CHECKS, UNIQUE_CHECKS=0 */;\n/*!40014 SET @OLD_FOREIGN_KEY_CHECKS=@@FOREIGN_KEY_CHECKS, FOREIGN_KEY_CHECKS=0 */;\n/*!40101 SET @OLD_SQL_MODE=@@SQL_MODE, SQL_MODE='NO_AUTO_VALUE_ON_ZERO' */;\n/*!40111 SET @OLD_SQL_NOTES=@@SQL_NOTES, SQL_NOTES=0 */;
0028.148 (0) Binary mysqldump: error (code: 5)
0028.176 (0) Table at_options: Total expected rows (approximate): 559
0028.296 (0) Table at_options: Rows added in this batch (start page: 0; next: finished): 282 in 0.12 seconds
0028.299 (0) Table at_options: finishing file (backup_2021-10-12-0700_ABC_Group_International_69a300785c9c-db-table-at_options.table.gz - 495 KB)
0028.307 (0) Table at_users: Total expected rows (approximate): 0
0028.312 (0) Table at_users: Rows added in this batch (start page: 0; next: finished): 1 in 0.00 seconds
0028.314 (0) Table at_users: finishing file (backup_2021-10-12-0700_ABC_Group_International_69a300785c9c-db-table-at_users.table.gz - 0.6 KB)
0028.321 (0) Table at_usermeta: Total expected rows (approximate): 30
0028.325 (0) Table at_usermeta: Rows added in this batch (start page: 0; next: finished): 35 in 0.00 seconds
0028.328 (0) Table at_usermeta: finishing file (backup_2021-10-12-0700_ABC_Group_International_69a300785c9c-db-table-at_usermeta.table.gz - 1.6 KB)
0028.336 (0) Table at_commentmeta: Total expected rows (approximate): 0
0028.340 (0) Table at_commentmeta: Rows added in this batch (start page: 0; next: finished): 0 in 0.00 seconds
0028.343 (0) Table at_commentmeta: finishing file (backup_2021-10-12-0700_ABC_Group_International_69a300785c9c-db-table-at_commentmeta.table.gz - 0.4 KB)
0028.351 (0) Table at_comments: Total expected rows (approximate): 0
0028.353 (0) Table at_comments: Rows added in this batch (start page: 0; next: finished): 1 in 0.00 seconds
0028.356 (0) Table at_comments: finishing file (backup_2021-10-12-0700_ABC_Group_International_69a300785c9c-db-table-at_comments.table.gz - 0.7 KB)
0028.364 (0) Table at_links: Total expected rows (approximate): 0
0028.368 (0) Table at_links: Rows added in this batch (start page: 0; next: finished): 0 in 0.00 seconds
0028.370 (0) Table at_links: finishing file (backup_2021-10-12-0700_ABC_Group_International_69a300785c9c-db-table-at_links.table.gz - 0.4 KB)
0028.379 (0) Table at_postmeta: Total expected rows (approximate): 1749
0028.437 (0) Table at_postmeta: Rows added in this batch (start page: 0; next: finished): 2154 in 0.06 seconds
0028.441 (0) Table at_postmeta: finishing file (backup_2021-10-12-0700_ABC_Group_International_69a300785c9c-db-table-at_postmeta.table.gz - 115.4 KB)
0028.450 (0) Table at_posts: Total expected rows (approximate): 1129
0028.549 (0) Table at_posts: Rows added in this batch (start page: 0; next: finished): 1041 in 0.10 seconds
0028.552 (0) Table at_posts: finishing file (backup_2021-10-12-0700_ABC_Group_International_69a300785c9c-db-table-at_posts.table.gz - 187.8 KB)
0028.559 (0) Table at_term_relationships: Total expected rows (approximate): 67
0028.564 (0) Table at_term_relationships: Rows added in this batch (start page: 0; next: finished): 70 in 0.00 seconds
0028.566 (0) Table at_term_relationships: finishing file (backup_2021-10-12-0700_ABC_Group_International_69a300785c9c-db-table-at_term_relationships.table.gz - 0.6 KB)
0028.574 (0) Table at_term_taxonomy: Total expected rows (approximate): 16
0028.576 (0) Table at_term_taxonomy: Rows added in this batch (start page: 0; next: finished): 17 in 0.00 seconds
0028.579 (0) Table at_term_taxonomy: finishing file (backup_2021-10-12-0700_ABC_Group_International_69a300785c9c-db-table-at_term_taxonomy.table.gz - 0.6 KB)
0028.585 (0) Table at_termmeta: Total expected rows (approximate): 0
0028.589 (0) Table at_termmeta: Rows added in this batch (start page: 0; next: finished): 0 in 0.00 seconds
0028.591 (0) Table at_termmeta: finishing file (backup_2021-10-12-0700_ABC_Group_International_69a300785c9c-db-table-at_termmeta.table.gz - 0.4 KB)
0028.599 (0) Table at_terms: Total expected rows (approximate): 17
0028.601 (0) Table at_terms: Rows added in this batch (start page: 0; next: finished): 17 in 0.00 seconds
0028.603 (0) Table at_terms: finishing file (backup_2021-10-12-0700_ABC_Group_International_69a300785c9c-db-table-at_terms.table.gz - 0.6 KB)
0028.611 (0) Table at_nextend2_image_storage: Total expected rows (approximate): 2
0028.613 (0) Table at_nextend2_image_storage: Rows added in this batch (start page: 0; next: finished): 2 in 0.00 seconds
0028.616 (0) Table at_nextend2_image_storage: finishing file (backup_2021-10-12-0700_ABC_Group_International_69a300785c9c-db-table-at_nextend2_image_storage.table.gz - 0.6 KB)
0028.623 (0) Table at_nextend2_section_storage: Total expected rows (approximate): 0
0028.627 (0) Table at_nextend2_section_storage: Rows added in this batch (start page: 0; next: finished): 1 in 0.00 seconds
0028.629 (0) Table at_nextend2_section_storage: finishing file (backup_2021-10-12-0700_ABC_Group_International_69a300785c9c-db-table-at_nextend2_section_storage.table.gz - 0.5 KB)
0028.635 (0) Table at_nextend2_smartslider3_generators: Total expected rows (approximate): 0
0028.639 (0) Table at_nextend2_smartslider3_generators: Rows added in this batch (start page: 0; next: finished): 0 in 0.00 seconds
0028.640 (0) Table at_nextend2_smartslider3_generators: finishing file (backup_2021-10-12-0700_ABC_Group_International_69a300785c9c-db-table-at_nextend2_smartslider3_generators.table.gz - 0.3 KB)
0028.647 (0) Table at_nextend2_smartslider3_sliders: Total expected rows (approximate): 0
0028.651 (0) Table at_nextend2_smartslider3_sliders: Rows added in this batch (start page: 0; next: finished): 1 in 0.00 seconds
0028.654 (0) Table at_nextend2_smartslider3_sliders: finishing file (backup_2021-10-12-0700_ABC_Group_International_69a300785c9c-db-table-at_nextend2_smartslider3_sliders.table.gz - 2.3 KB)
0028.661 (0) Table at_nextend2_smartslider3_sliders_xref: Total expected rows (approximate): 0
0028.664 (0) Table at_nextend2_smartslider3_sliders_xref: Rows added in this batch (start page: 0; next: finished): 0 in 0.00 seconds
0028.666 (0) Table at_nextend2_smartslider3_sliders_xref: finishing file (backup_2021-10-12-0700_ABC_Group_International_69a300785c9c-db-table-at_nextend2_smartslider3_sliders_xref.table.gz - 0.3 KB)
0028.673 (0) Table at_nextend2_smartslider3_slides: Total expected rows (approximate): 2
0028.677 (0) Table at_nextend2_smartslider3_slides: Rows added in this batch (start page: 0; next: finished): 2 in 0.00 seconds
0028.680 (0) Table at_nextend2_smartslider3_slides: finishing file (backup_2021-10-12-0700_ABC_Group_International_69a300785c9c-db-table-at_nextend2_smartslider3_slides.table.gz - 2.8 KB)
0028.688 (0) Table at_revslider_css: Total expected rows (approximate): 109
0028.695 (0) Table at_revslider_css: Rows added in this batch (start page: 0; next: finished): 109 in 0.00 seconds
0028.698 (0) Table at_revslider_css: finishing file (backup_2021-10-12-0700_ABC_Group_International_69a300785c9c-db-table-at_revslider_css.table.gz - 4.9 KB)
0028.704 (0) Table at_revslider_css_bkp: Total expected rows (approximate): 47
0028.709 (0) Table at_revslider_css_bkp: Rows added in this batch (start page: 0; next: finished): 47 in 0.00 seconds
0028.711 (0) Table at_revslider_css_bkp: finishing file (backup_2021-10-12-0700_ABC_Group_International_69a300785c9c-db-table-at_revslider_css_bkp.table.gz - 1.8 KB)
0028.719 (0) Table at_revslider_layer_animations: Total expected rows (approximate): 0
0028.723 (0) Table at_revslider_layer_animations: Rows added in this batch (start page: 0; next: finished): 0 in 0.00 seconds
0028.724 (0) Table at_revslider_layer_animations: finishing file (backup_2021-10-12-0700_ABC_Group_International_69a300785c9c-db-table-at_revslider_layer_animations.table.gz - 0.3 KB)
0028.734 (0) Table at_revslider_layer_animations_bkp: Total expected rows (approximate): 0
0028.738 (0) Table at_revslider_layer_animations_bkp: Rows added in this batch (start page: 0; next: finished): 0 in 0.00 seconds
0028.741 (0) Table at_revslider_layer_animations_bkp: finishing file (backup_2021-10-12-0700_ABC_Group_International_69a300785c9c-db-table-at_revslider_layer_animations_bkp.table.gz - 0.3 KB)
0028.750 (0) Table at_revslider_navigations: Total expected rows (approximate): 0
0028.754 (0) Table at_revslider_navigations: Rows added in this batch (start page: 0; next: finished): 0 in 0.00 seconds
0028.757 (0) Table at_revslider_navigations: finishing file (backup_2021-10-12-0700_ABC_Group_International_69a300785c9c-db-table-at_revslider_navigations.table.gz - 0.3 KB)
0028.767 (0) Table at_revslider_navigations_bkp: Total expected rows (approximate): 0
0028.771 (0) Table at_revslider_navigations_bkp: Rows added in this batch (start page: 0; next: finished): 0 in 0.00 seconds
0028.774 (0) Table at_revslider_navigations_bkp: finishing file (backup_2021-10-12-0700_ABC_Group_International_69a300785c9c-db-table-at_revslider_navigations_bkp.table.gz - 0.3 KB)
0028.784 (0) Table at_revslider_sliders: Total expected rows (approximate): 23
0028.791 (0) Table at_revslider_sliders: Rows added in this batch (start page: 0; next: finished): 23 in 0.00 seconds
0028.794 (0) Table at_revslider_sliders: finishing file (backup_2021-10-12-0700_ABC_Group_International_69a300785c9c-db-table-at_revslider_sliders.table.gz - 5.6 KB)
0028.804 (0) Table at_revslider_sliders_bkp: Total expected rows (approximate): 0
0028.808 (0) Table at_revslider_sliders_bkp: Rows added in this batch (start page: 0; next: finished): 0 in 0.00 seconds
0028.811 (0) Table at_revslider_sliders_bkp: finishing file (backup_2021-10-12-0700_ABC_Group_International_69a300785c9c-db-table-at_revslider_sliders_bkp.table.gz - 0.3 KB)
0028.819 (0) Table at_revslider_slides: Total expected rows (approximate): 29
0028.830 (0) Table at_revslider_slides: Rows added in this batch (start page: 0; next: finished): 60 in 0.01 seconds
0028.835 (0) Table at_revslider_slides: finishing file (backup_2021-10-12-0700_ABC_Group_International_69a300785c9c-db-table-at_revslider_slides.table.gz - 14.2 KB)
0028.847 (0) Table at_revslider_slides_bkp: Total expected rows (approximate): 0
0028.849 (0) Table at_revslider_slides_bkp: Rows added in this batch (start page: 0; next: finished): 0 in 0.00 seconds
0028.852 (0) Table at_revslider_slides_bkp: finishing file (backup_2021-10-12-0700_ABC_Group_International_69a300785c9c-db-table-at_revslider_slides_bkp.table.gz - 0.3 KB)
0028.859 (0) Table at_revslider_static_slides: Total expected rows (approximate): 23
0028.864 (0) Table at_revslider_static_slides: Rows added in this batch (start page: 0; next: finished): 23 in 0.00 seconds
0028.866 (0) Table at_revslider_static_slides: finishing file (backup_2021-10-12-0700_ABC_Group_International_69a300785c9c-db-table-at_revslider_static_slides.table.gz - 1.5 KB)
0028.874 (0) Table at_revslider_static_slides_bkp: Total expected rows (approximate): 0
0028.876 (0) Table at_revslider_static_slides_bkp: Rows added in this batch (start page: 0; next: finished): 0 in 0.00 seconds
0028.879 (0) Table at_revslider_static_slides_bkp: finishing file (backup_2021-10-12-0700_ABC_Group_International_69a300785c9c-db-table-at_revslider_static_slides_bkp.table.gz - 0.3 KB)
0028.887 (0) Table at_xyz_ihs_short_code: Total expected rows (approximate): 2
0029.010 (0) Table at_xyz_ihs_short_code: Rows added in this batch (start page: 0; next: finished): 2 in 0.12 seconds
0029.013 (0) Table at_xyz_ihs_short_code: finishing file (backup_2021-10-12-0700_ABC_Group_International_69a300785c9c-db-table-at_xyz_ihs_short_code.table.gz - 289.6 KB)
0029.022 (0) backup_2021-10-12-0700_ABC_Group_International_69a300785c9c-db-table-at_options.table.gz (1/31): adding to final database dump
0029.161 (0) backup_2021-10-12-0700_ABC_Group_International_69a300785c9c-db-table-at_users.table.gz (2/31): adding to final database dump
0029.164 (0) backup_2021-10-12-0700_ABC_Group_International_69a300785c9c-db-table-at_usermeta.table.gz (3/31): adding to final database dump
0029.167 (0) backup_2021-10-12-0700_ABC_Group_International_69a300785c9c-db-table-at_commentmeta.table.gz (4/31): adding to final database dump
0029.168 (0) backup_2021-10-12-0700_ABC_Group_International_69a300785c9c-db-table-at_comments.table.gz (5/31): adding to final database dump
0029.171 (0) backup_2021-10-12-0700_ABC_Group_International_69a300785c9c-db-table-at_links.table.gz (6/31): adding to final database dump
0029.174 (0) backup_2021-10-12-0700_ABC_Group_International_69a300785c9c-db-table-at_postmeta.table.gz (7/31): adding to final database dump
0029.219 (0) backup_2021-10-12-0700_ABC_Group_International_69a300785c9c-db-table-at_posts.table.gz (8/31): adding to final database dump
0029.297 (0) backup_2021-10-12-0700_ABC_Group_International_69a300785c9c-db-table-at_term_relationships.table.gz (9/31): adding to final database dump
0029.300 (0) backup_2021-10-12-0700_ABC_Group_International_69a300785c9c-db-table-at_term_taxonomy.table.gz (10/31): adding to final database dump
0029.303 (0) backup_2021-10-12-0700_ABC_Group_International_69a300785c9c-db-table-at_termmeta.table.gz (11/31): adding to final database dump
0029.306 (0) backup_2021-10-12-0700_ABC_Group_International_69a300785c9c-db-table-at_terms.table.gz (12/31): adding to final database dump
0029.308 (0) backup_2021-10-12-0700_ABC_Group_International_69a300785c9c-db-table-at_nextend2_image_storage.table.gz (13/31): adding to final database dump
0029.312 (0) backup_2021-10-12-0700_ABC_Group_International_69a300785c9c-db-table-at_nextend2_section_storage.table.gz (14/31): adding to final database dump
0029.316 (0) backup_2021-10-12-0700_ABC_Group_International_69a300785c9c-db-table-at_nextend2_smartslider3_generators.table.gz (15/31): adding to final database dump
0029.320 (0) backup_2021-10-12-0700_ABC_Group_International_69a300785c9c-db-table-at_nextend2_smartslider3_sliders.table.gz (16/31): adding to final database dump
0029.325 (0) backup_2021-10-12-0700_ABC_Group_International_69a300785c9c-db-table-at_nextend2_smartslider3_sliders_xref.table.gz (17/31): adding to final database dump
0029.329 (0) backup_2021-10-12-0700_ABC_Group_International_69a300785c9c-db-table-at_nextend2_smartslider3_slides.table.gz (18/31): adding to final database dump
0029.333 (0) backup_2021-10-12-0700_ABC_Group_International_69a300785c9c-db-table-at_revslider_css.table.gz (19/31): adding to final database dump
0029.338 (0) backup_2021-10-12-0700_ABC_Group_International_69a300785c9c-db-table-at_revslider_css_bkp.table.gz (20/31): adding to final database dump
0029.342 (0) backup_2021-10-12-0700_ABC_Group_International_69a300785c9c-db-table-at_revslider_layer_animations.table.gz (21/31): adding to final database dump
0029.347 (0) backup_2021-10-12-0700_ABC_Group_International_69a300785c9c-db-table-at_revslider_layer_animations_bkp.table.gz (22/31): adding to final database dump
0029.351 (0) backup_2021-10-12-0700_ABC_Group_International_69a300785c9c-db-table-at_revslider_navigations.table.gz (23/31): adding to final database dump
0029.354 (0) backup_2021-10-12-0700_ABC_Group_International_69a300785c9c-db-table-at_revslider_navigations_bkp.table.gz (24/31): adding to final database dump
0029.356 (0) backup_2021-10-12-0700_ABC_Group_International_69a300785c9c-db-table-at_revslider_sliders.table.gz (25/31): adding to final database dump
0029.363 (0) backup_2021-10-12-0700_ABC_Group_International_69a300785c9c-db-table-at_revslider_sliders_bkp.table.gz (26/31): adding to final database dump
0029.367 (0) backup_2021-10-12-0700_ABC_Group_International_69a300785c9c-db-table-at_revslider_slides.table.gz (27/31): adding to final database dump
0029.379 (0) backup_2021-10-12-0700_ABC_Group_International_69a300785c9c-db-table-at_revslider_slides_bkp.table.gz (28/31): adding to final database dump
0029.383 (0) backup_2021-10-12-0700_ABC_Group_International_69a300785c9c-db-table-at_revslider_static_slides.table.gz (29/31): adding to final database dump
0029.385 (0) backup_2021-10-12-0700_ABC_Group_International_69a300785c9c-db-table-at_revslider_static_slides_bkp.table.gz (30/31): adding to final database dump
0029.387 (0) backup_2021-10-12-0700_ABC_Group_International_69a300785c9c-db-table-at_xyz_ihs_short_code.table.gz (31/31): adding to final database dump
0029.520 (0) backup_2021-10-12-0700_ABC_Group_International_69a300785c9c-db.gz: finished writing out complete database file (1104 KB)
0029.549 (0) Total database tables backed up: 31 (backup_2021-10-12-0700_ABC_Group_International_69a300785c9c-db.gz, size: 1150396, sha1: fc48e61042104ccfb805e935992f27e23dd72377, sha256: f04ea25c0c2ffe1f4b000b92bd0e1b0516fb263714fc77b99138e121bb3819a5)
0029.563 (0) backup_2021-10-12-0700_ABC_Group_International_69a300785c9c-plugins.zip: plugins: This file has not yet been successfully uploaded: will queue
0029.564 (0) backup_2021-10-12-0700_ABC_Group_International_69a300785c9c-themes.zip: themes: This file has not yet been successfully uploaded: will queue
0029.567 (0) backup_2021-10-12-0700_ABC_Group_International_69a300785c9c-uploads.zip: uploads: This file has not yet been successfully uploaded: will queue
0029.570 (0) backup_2021-10-12-0700_ABC_Group_International_69a300785c9c-db.gz: db: This file has not yet been successfully uploaded: will queue
0029.572 (0) Saving backup history. Total backup size: 380.2 MB
0029.579 (0) Requesting upload of the files that have not yet been successfully uploaded (4)
0029.589 (0) Cloud backup selection (1/1): googledrive with instance (1/1) (last)
0029.592 (0) Beginning dispatch of backup to remote (googledrive) (instance identifier s-26bbdea191f87c0b9f6ef5bd0b22da7a)
0032.789 (0) Google Drive: quota usage: used=2755.3 MB, total=15360 MB, available=12604.7 MB
0032.793 (0) Google Drive: backup_2021-10-12-0700_ABC_Group_International_69a300785c9c-plugins.zip: Attempting to upload to Google Drive (into folder id: 1tm1S1_TNoPoXKhvpA4QSfe0R_F4JYOkB)
0034.164 (0) Googledrive chunked upload: 4.4 % uploaded (1048576)
0034.867 (0) Googledrive chunked upload: 8.8 % uploaded (2097152)
0035.584 (0) Googledrive chunked upload: 13.2 % uploaded (3145728)
0036.296 (0) Googledrive chunked upload: 17.5 % uploaded (4194304)
0036.946 (0) Googledrive chunked upload: 21.9 % uploaded (5242880)
0037.549 (0) Googledrive chunked upload: 26.3 % uploaded (6291456)
0038.251 (0) Googledrive chunked upload: 30.7 % uploaded (7340032)
0038.951 (0) Googledrive chunked upload: 35.1 % uploaded (8388608)
0039.643 (0) Googledrive chunked upload: 39.5 % uploaded (9437184)
0040.347 (0) Googledrive chunked upload: 43.9 % uploaded (10485760)
0041.058 (0) Googledrive chunked upload: 48.2 % uploaded (11534336)
0041.759 (0) Googledrive chunked upload: 52.6 % uploaded (12582912)
0042.459 (0) Googledrive chunked upload: 57 % uploaded (13631488)
0043.153 (0) Googledrive chunked upload: 61.4 % uploaded (14680064)
0043.876 (0) Googledrive chunked upload: 65.8 % uploaded (15728640)
0044.572 (0) Googledrive chunked upload: 70.2 % uploaded (16777216)
0045.279 (0) Googledrive chunked upload: 74.6 % uploaded (17825792)
0045.890 (0) Googledrive chunked upload: 78.9 % uploaded (18874368)
0046.476 (0) Googledrive chunked upload: 83.3 % uploaded (19922944)
0047.143 (0) Googledrive chunked upload: 87.7 % uploaded (20971520)
0047.848 (0) Googledrive chunked upload: 92.1 % uploaded (22020096)
0048.376 (0) Googledrive chunked upload: 96.5 % uploaded (23068672)
0050.230 (0) Googledrive chunked upload: 100 % uploaded (23068672)
0050.236 (0) Google Drive: OK: Archive backup_2021-10-12-0700_ABC_Group_International_69a300785c9c-plugins.zip uploaded in 17.44 seconds
0050.238 (0) Recording as successfully uploaded: backup_2021-10-12-0700_ABC_Group_International_69a300785c9c-plugins.zip
0050.247 (0) Deleting local file: backup_2021-10-12-0700_ABC_Group_International_69a300785c9c-plugins.zip: OK
0050.691 (0) Google Drive: quota usage: used=2778.1 MB, total=15360 MB, available=12581.9 MB
0050.695 (0) Google Drive: backup_2021-10-12-0700_ABC_Group_International_69a300785c9c-themes.zip: Attempting to upload to Google Drive (into folder id: 1tm1S1_TNoPoXKhvpA4QSfe0R_F4JYOkB)
0052.090 (0) Googledrive chunked upload: 37.4 % uploaded (1048576)
0052.781 (0) Googledrive chunked upload: 74.8 % uploaded (2097152)
0054.510 (0) Googledrive chunked upload: 100 % uploaded (2097152)
0054.533 (0) Google Drive: OK: Archive backup_2021-10-12-0700_ABC_Group_International_69a300785c9c-themes.zip uploaded in 3.83 seconds
0054.536 (0) Recording as successfully uploaded: backup_2021-10-12-0700_ABC_Group_International_69a300785c9c-themes.zip
0054.543 (0) Deleting local file: backup_2021-10-12-0700_ABC_Group_International_69a300785c9c-themes.zip: OK
0054.997 (0) Google Drive: quota usage: used=2780.8 MB, total=15360 MB, available=12579.2 MB
0054.999 (0) Google Drive: backup_2021-10-12-0700_ABC_Group_International_69a300785c9c-uploads.zip: Attempting to upload to Google Drive (into folder id: 1tm1S1_TNoPoXKhvpA4QSfe0R_F4JYOkB)
0056.383 (0) Googledrive chunked upload: 0.3 % uploaded (1048576)
0057.083 (0) Googledrive chunked upload: 0.6 % uploaded (2097152)
0057.770 (0) Googledrive chunked upload: 0.8 % uploaded (3145728)
0058.354 (0) Googledrive chunked upload: 1.1 % uploaded (4194304)
0059.043 (0) Googledrive chunked upload: 1.4 % uploaded (5242880)
0059.737 (0) Googledrive chunked upload: 1.7 % uploaded (6291456)
0060.417 (0) Googledrive chunked upload: 2 % uploaded (7340032)
0061.112 (0) Googledrive chunked upload: 2.3 % uploaded (8388608)
0061.716 (0) Googledrive chunked upload: 2.5 % uploaded (9437184)
0062.396 (0) Googledrive chunked upload: 2.8 % uploaded (10485760)
0062.975 (0) Googledrive chunked upload: 3.1 % uploaded (11534336)
0063.564 (0) Googledrive chunked upload: 3.4 % uploaded (12582912)
0064.254 (0) Googledrive chunked upload: 3.7 % uploaded (13631488)
0064.909 (0) Googledrive chunked upload: 4 % uploaded (14680064)
0065.572 (0) Googledrive chunked upload: 4.2 % uploaded (15728640)
0066.259 (0) Googledrive chunked upload: 4.5 % uploaded (16777216)
0066.948 (0) Googledrive chunked upload: 4.8 % uploaded (17825792)
0067.634 (0) Googledrive chunked upload: 5.1 % uploaded (18874368)
0068.216 (0) Googledrive chunked upload: 5.4 % uploaded (19922944)
0068.883 (0) Googledrive chunked upload: 5.7 % uploaded (20971520)
0069.393 (0) Googledrive chunked upload: 5.9 % uploaded (22020096)
0070.082 (0) Googledrive chunked upload: 6.2 % uploaded (23068672)
0070.765 (0) Googledrive chunked upload: 6.5 % uploaded (24117248)
0071.440 (0) Googledrive chunked upload: 6.8 % uploaded (25165824)
0072.020 (0) Googledrive chunked upload: 7.1 % uploaded (26214400)
0072.696 (0) Googledrive chunked upload: 7.4 % uploaded (27262976)
0073.366 (0) Googledrive chunked upload: 7.6 % uploaded (28311552)
0074.042 (0) Googledrive chunked upload: 7.9 % uploaded (29360128)
0074.695 (0) Googledrive chunked upload: 8.2 % uploaded (30408704)
0075.263 (0) Googledrive chunked upload: 8.5 % uploaded (31457280)
0075.942 (0) Googledrive chunked upload: 8.8 % uploaded (32505856)
0076.602 (0) Googledrive chunked upload: 9 % uploaded (33554432)
0077.136 (0) Googledrive chunked upload: 9.3 % uploaded (34603008)
0077.797 (0) Googledrive chunked upload: 9.6 % uploaded (35651584)
0078.476 (0) Googledrive chunked upload: 9.9 % uploaded (36700160)
0079.158 (0) Googledrive chunked upload: 10.2 % uploaded (37748736)
0079.840 (0) Googledrive chunked upload: 10.5 % uploaded (38797312)
0080.521 (0) Googledrive chunked upload: 10.7 % uploaded (39845888)
0081.224 (0) Googledrive chunked upload: 11 % uploaded (40894464)
0081.884 (0) Googledrive chunked upload: 11.3 % uploaded (41943040)
0082.536 (0) Googledrive chunked upload: 11.6 % uploaded (42991616)
0083.216 (0) Googledrive chunked upload: 11.9 % uploaded (44040192)
0083.888 (0) Googledrive chunked upload: 12.2 % uploaded (45088768)
0084.542 (0) Googledrive chunked upload: 12.4 % uploaded (46137344)
0085.222 (0) Googledrive chunked upload: 12.7 % uploaded (47185920)
0085.901 (0) Googledrive chunked upload: 13 % uploaded (48234496)
0086.635 (0) Googledrive chunked upload: 13.3 % uploaded (49283072)
0087.308 (0) Googledrive chunked upload: 13.6 % uploaded (50331648)
0087.932 (0) Googledrive chunked upload: 13.9 % uploaded (51380224)
0088.604 (0) Googledrive chunked upload: 14.1 % uploaded (52428800)
0089.321 (0) Googledrive chunked upload: 14.4 % uploaded (53477376)
0090.002 (0) Googledrive chunked upload: 14.7 % uploaded (54525952)
0090.516 (0) Googledrive chunked upload: 15 % uploaded (55574528)
0091.221 (0) Googledrive chunked upload: 15.3 % uploaded (56623104)
0091.881 (0) Googledrive chunked upload: 15.6 % uploaded (57671680)
0092.561 (0) Googledrive chunked upload: 15.8 % uploaded (58720256)
0093.284 (0) Googledrive chunked upload: 16.1 % uploaded (59768832)
0093.964 (0) Googledrive chunked upload: 16.4 % uploaded (60817408)
0094.643 (0) Googledrive chunked upload: 16.7 % uploaded (61865984)
0095.288 (0) Googledrive chunked upload: 17 % uploaded (62914560)
0095.964 (0) Googledrive chunked upload: 17.3 % uploaded (63963136)
0096.647 (0) Googledrive chunked upload: 17.5 % uploaded (65011712)
0097.191 (0) Googledrive chunked upload: 17.8 % uploaded (66060288)
0097.848 (0) Googledrive chunked upload: 18.1 % uploaded (67108864)
0098.515 (0) Googledrive chunked upload: 18.4 % uploaded (68157440)
0099.167 (0) Googledrive chunked upload: 18.7 % uploaded (69206016)
0099.739 (0) Googledrive chunked upload: 18.9 % uploaded (70254592)
0100.431 (0) Googledrive chunked upload: 19.2 % uploaded (71303168)
0101.116 (0) Googledrive chunked upload: 19.5 % uploaded (72351744)
0101.771 (0) Googledrive chunked upload: 19.8 % uploaded (73400320)
0102.428 (0) Googledrive chunked upload: 20.1 % uploaded (74448896)
0103.123 (0) Googledrive chunked upload: 20.4 % uploaded (75497472)
0103.826 (0) Googledrive chunked upload: 20.6 % uploaded (76546048)
0104.507 (0) Googledrive chunked upload: 20.9 % uploaded (77594624)
0105.082 (0) Googledrive chunked upload: 21.2 % uploaded (78643200)
0105.742 (0) Googledrive chunked upload: 21.5 % uploaded (79691776)
0106.411 (0) Googledrive chunked upload: 21.8 % uploaded (80740352)
0107.014 (0) Googledrive chunked upload: 22.1 % uploaded (81788928)
0107.716 (0) Googledrive chunked upload: 22.3 % uploaded (82837504)
0108.389 (0) Googledrive chunked upload: 22.6 % uploaded (83886080)
0109.052 (0) Googledrive chunked upload: 22.9 % uploaded (84934656)
0109.672 (0) Googledrive chunked upload: 23.2 % uploaded (85983232)
0110.347 (0) Googledrive chunked upload: 23.5 % uploaded (87031808)
0111.021 (0) Googledrive chunked upload: 23.8 % uploaded (88080384)
0111.719 (0) Googledrive chunked upload: 24 % uploaded (89128960)
0112.395 (0) Googledrive chunked upload: 24.3 % uploaded (90177536)
0113.082 (0) Googledrive chunked upload: 24.6 % uploaded (91226112)
0113.762 (0) Googledrive chunked upload: 24.9 % uploaded (92274688)
0114.454 (0) Googledrive chunked upload: 25.2 % uploaded (93323264)
0115.123 (0) Googledrive chunked upload: 25.5 % uploaded (94371840)
0115.784 (0) Googledrive chunked upload: 25.7 % uploaded (95420416)
0116.368 (0) Googledrive chunked upload: 26 % uploaded (96468992)
0117.040 (0) Googledrive chunked upload: 26.3 % uploaded (97517568)
0117.711 (0) Googledrive chunked upload: 26.6 % uploaded (98566144)
0118.398 (0) Googledrive chunked upload: 26.9 % uploaded (99614720)
0119.066 (0) Googledrive chunked upload: 27.1 % uploaded (100663296)
0119.739 (0) Googledrive chunked upload: 27.4 % uploaded (101711872)
0120.411 (0) Googledrive chunked upload: 27.7 % uploaded (102760448)
0121.089 (0) Googledrive chunked upload: 28 % uploaded (103809024)
0121.765 (0) Googledrive chunked upload: 28.3 % uploaded (104857600)
0122.444 (0) Googledrive chunked upload: 28.6 % uploaded (105906176)
0123.125 (0) Googledrive chunked upload: 28.8 % uploaded (106954752)
0123.747 (0) Googledrive chunked upload: 29.1 % uploaded (108003328)
0124.431 (0) Googledrive chunked upload: 29.4 % uploaded (109051904)
0125.119 (0) Googledrive chunked upload: 29.7 % uploaded (110100480)
0125.795 (0) Googledrive chunked upload: 30 % uploaded (111149056)
0126.429 (0) Googledrive chunked upload: 30.3 % uploaded (112197632)
0127.111 (0) Googledrive chunked upload: 30.5 % uploaded (113246208)
0127.716 (0) Googledrive chunked upload: 30.8 % uploaded (114294784)
0128.389 (0) Googledrive chunked upload: 31.1 % uploaded (115343360)
0129.076 (0) Googledrive chunked upload: 31.4 % uploaded (116391936)
0129.639 (0) Googledrive chunked upload: 31.7 % uploaded (117440512)
0130.310 (0) Googledrive chunked upload: 32 % uploaded (118489088)
0130.997 (0) Googledrive chunked upload: 32.2 % uploaded (119537664)
0131.508 (0) Googledrive chunked upload: 32.5 % uploaded (120586240)
0132.062 (0) Googledrive chunked upload: 32.8 % uploaded (121634816)
0132.724 (0) Googledrive chunked upload: 33.1 % uploaded (122683392)
0133.504 (0) Googledrive chunked upload: 33.4 % uploaded (123731968)
0134.191 (0) Googledrive chunked upload: 33.7 % uploaded (124780544)
0134.876 (0) Googledrive chunked upload: 33.9 % uploaded (125829120)
0135.564 (0) Googledrive chunked upload: 34.2 % uploaded (126877696)
0136.239 (0) Googledrive chunked upload: 34.5 % uploaded (127926272)
0136.923 (0) Googledrive chunked upload: 34.8 % uploaded (128974848)
0137.579 (0) Googledrive chunked upload: 35.1 % uploaded (130023424)
0138.236 (0) Googledrive chunked upload: 35.4 % uploaded (131072000)
0138.815 (0) Googledrive chunked upload: 35.6 % uploaded (132120576)
0139.501 (0) Googledrive chunked upload: 35.9 % uploaded (133169152)
0140.181 (0) Googledrive chunked upload: 36.2 % uploaded (134217728)
0140.868 (0) Googledrive chunked upload: 36.5 % uploaded (135266304)
0141.537 (0) Googledrive chunked upload: 36.8 % uploaded (136314880)
0142.204 (0) Googledrive chunked upload: 37 % uploaded (137363456)
0142.892 (0) Googledrive chunked upload: 37.3 % uploaded (138412032)
0143.542 (0) Googledrive chunked upload: 37.6 % uploaded (139460608)
0144.223 (0) Googledrive chunked upload: 37.9 % uploaded (140509184)
0144.901 (0) Googledrive chunked upload: 38.2 % uploaded (141557760)
0145.552 (0) Googledrive chunked upload: 38.5 % uploaded (142606336)
0146.183 (0) Googledrive chunked upload: 38.7 % uploaded (143654912)
0146.855 (0) Googledrive chunked upload: 39 % uploaded (144703488)
0147.539 (0) Googledrive chunked upload: 39.3 % uploaded (145752064)
0148.224 (0) Googledrive chunked upload: 39.6 % uploaded (146800640)
0148.887 (0) Googledrive chunked upload: 39.9 % uploaded (147849216)
0149.554 (0) Googledrive chunked upload: 40.2 % uploaded (148897792)
0150.236 (0) Googledrive chunked upload: 40.4 % uploaded (149946368)
0150.911 (0) Googledrive chunked upload: 40.7 % uploaded (150994944)
0151.419 (0) Googledrive chunked upload: 41 % uploaded (152043520)
0152.109 (0) Googledrive chunked upload: 41.3 % uploaded (153092096)
0152.787 (0) Googledrive chunked upload: 41.6 % uploaded (154140672)
0153.475 (0) Googledrive chunked upload: 41.9 % uploaded (155189248)
0154.162 (0) Googledrive chunked upload: 42.1 % uploaded (156237824)
0154.857 (0) Googledrive chunked upload: 42.4 % uploaded (157286400)
0155.437 (0) Googledrive chunked upload: 42.7 % uploaded (158334976)
0156.109 (0) Googledrive chunked upload: 43 % uploaded (159383552)
0156.787 (0) Googledrive chunked upload: 43.3 % uploaded (160432128)
0157.478 (0) Googledrive chunked upload: 43.6 % uploaded (161480704)
0158.034 (0) Googledrive chunked upload: 43.8 % uploaded (162529280)
0158.699 (0) Googledrive chunked upload: 44.1 % uploaded (163577856)
0159.392 (0) Googledrive chunked upload: 44.4 % uploaded (164626432)
0160.083 (0) Googledrive chunked upload: 44.7 % uploaded (165675008)
0160.691 (0) Googledrive chunked upload: 45 % uploaded (166723584)
0161.366 (0) Googledrive chunked upload: 45.2 % uploaded (167772160)
0162.049 (0) Googledrive chunked upload: 45.5 % uploaded (168820736)
0162.727 (0) Googledrive chunked upload: 45.8 % uploaded (169869312)
0163.418 (0) Googledrive chunked upload: 46.1 % uploaded (170917888)
0164.108 (0) Googledrive chunked upload: 46.4 % uploaded (171966464)
0164.671 (0) Googledrive chunked upload: 46.7 % uploaded (173015040)
0165.223 (0) Googledrive chunked upload: 46.9 % uploaded (174063616)
0165.906 (0) Googledrive chunked upload: 47.2 % uploaded (175112192)
0166.593 (0) Googledrive chunked upload: 47.5 % uploaded (176160768)
0167.283 (0) Googledrive chunked upload: 47.8 % uploaded (177209344)
0167.973 (0) Googledrive chunked upload: 48.1 % uploaded (178257920)
0168.665 (0) Googledrive chunked upload: 48.4 % uploaded (179306496)
0169.363 (0) Googledrive chunked upload: 48.6 % uploaded (180355072)
0169.880 (0) Googledrive chunked upload: 48.9 % uploaded (181403648)
0170.538 (0) Googledrive chunked upload: 49.2 % uploaded (182452224)
0171.216 (0) Googledrive chunked upload: 49.5 % uploaded (183500800)
0171.837 (0) Googledrive chunked upload: 49.8 % uploaded (184549376)
0172.531 (0) Googledrive chunked upload: 50.1 % uploaded (185597952)
0173.223 (0) Googledrive chunked upload: 50.3 % uploaded (186646528)
0173.908 (0) Googledrive chunked upload: 50.6 % uploaded (187695104)
0174.597 (0) Googledrive chunked upload: 50.9 % uploaded (188743680)
0175.285 (0) Googledrive chunked upload: 51.2 % uploaded (189792256)
0175.963 (0) Googledrive chunked upload: 51.5 % uploaded (190840832)
0176.629 (0) Googledrive chunked upload: 51.8 % uploaded (191889408)
0177.300 (0) Googledrive chunked upload: 52 % uploaded (192937984)
0177.981 (0) Googledrive chunked upload: 52.3 % uploaded (193986560)
0178.683 (0) Googledrive chunked upload: 52.6 % uploaded (195035136)
0179.393 (0) Googledrive chunked upload: 52.9 % uploaded (196083712)
0180.075 (0) Googledrive chunked upload: 53.2 % uploaded (197132288)
0180.788 (0) Googledrive chunked upload: 53.5 % uploaded (198180864)
0181.471 (0) Googledrive chunked upload: 53.7 % uploaded (199229440)
0182.159 (0) Googledrive chunked upload: 54 % uploaded (200278016)
0182.822 (0) Googledrive chunked upload: 54.3 % uploaded (201326592)
0183.359 (0) Googledrive chunked upload: 54.6 % uploaded (202375168)
0184.043 (0) Googledrive chunked upload: 54.9 % uploaded (203423744)
0184.721 (0) Googledrive chunked upload: 55.1 % uploaded (204472320)
0185.379 (0) Googledrive chunked upload: 55.4 % uploaded (205520896)
0186.058 (0) Googledrive chunked upload: 55.7 % uploaded (206569472)
0186.755 (0) Googledrive chunked upload: 56 % uploaded (207618048)
0187.480 (0) Googledrive chunked upload: 56.3 % uploaded (208666624)
0188.163 (0) Googledrive chunked upload: 56.6 % uploaded (209715200)
0188.832 (0) Googledrive chunked upload: 56.8 % uploaded (210763776)
0189.522 (0) Googledrive chunked upload: 57.1 % uploaded (211812352)
0190.212 (0) Googledrive chunked upload: 57.4 % uploaded (212860928)
0190.900 (0) Googledrive chunked upload: 57.7 % uploaded (213909504)
0191.574 (0) Googledrive chunked upload: 58 % uploaded (214958080)
0192.239 (0) Googledrive chunked upload: 58.3 % uploaded (216006656)
0192.927 (0) Googledrive chunked upload: 58.5 % uploaded (217055232)
0193.519 (0) Googledrive chunked upload: 58.8 % uploaded (218103808)
0194.236 (0) Googledrive chunked upload: 59.1 % uploaded (219152384)
0194.891 (0) Googledrive chunked upload: 59.4 % uploaded (220200960)
0195.510 (0) Googledrive chunked upload: 59.7 % uploaded (221249536)
0196.187 (0) Googledrive chunked upload: 60 % uploaded (222298112)
0196.850 (0) Googledrive chunked upload: 60.2 % uploaded (223346688)
0197.536 (0) Googledrive chunked upload: 60.5 % uploaded (224395264)
0198.244 (0) Googledrive chunked upload: 60.8 % uploaded (225443840)
0198.928 (0) Googledrive chunked upload: 61.1 % uploaded (226492416)
0199.622 (0) Googledrive chunked upload: 61.4 % uploaded (227540992)
0200.320 (0) Googledrive chunked upload: 61.7 % uploaded (228589568)
0200.975 (0) Googledrive chunked upload: 61.9 % uploaded (229638144)
0201.616 (0) Googledrive chunked upload: 62.2 % uploaded (230686720)
0202.284 (0) Googledrive chunked upload: 62.5 % uploaded (231735296)
0202.969 (0) Googledrive chunked upload: 62.8 % uploaded (232783872)
0203.663 (0) Googledrive chunked upload: 63.1 % uploaded (233832448)
0204.364 (0) Googledrive chunked upload: 63.3 % uploaded (234881024)
0205.043 (0) Googledrive chunked upload: 63.6 % uploaded (235929600)
0205.735 (0) Googledrive chunked upload: 63.9 % uploaded (236978176)
0206.417 (0) Googledrive chunked upload: 64.2 % uploaded (238026752)
0207.106 (0) Googledrive chunked upload: 64.5 % uploaded (239075328)
0207.773 (0) Googledrive chunked upload: 64.8 % uploaded (240123904)
0208.448 (0) Googledrive chunked upload: 65 % uploaded (241172480)
0209.139 (0) Googledrive chunked upload: 65.3 % uploaded (242221056)
0209.816 (0) Googledrive chunked upload: 65.6 % uploaded (243269632)
0210.508 (0) Googledrive chunked upload: 65.9 % uploaded (244318208)
0211.123 (0) Googledrive chunked upload: 66.2 % uploaded (245366784)
0211.801 (0) Googledrive chunked upload: 66.5 % uploaded (246415360)
0212.495 (0) Googledrive chunked upload: 66.7 % uploaded (247463936)
0213.162 (0) Googledrive chunked upload: 67 % uploaded (248512512)
0213.828 (0) Googledrive chunked upload: 67.3 % uploaded (249561088)
0214.357 (0) Googledrive chunked upload: 67.6 % uploaded (250609664)
0215.031 (0) Googledrive chunked upload: 67.9 % uploaded (251658240)
0215.728 (0) Googledrive chunked upload: 68.2 % uploaded (252706816)
0216.312 (0) Googledrive chunked upload: 68.4 % uploaded (253755392)
0217.019 (0) Googledrive chunked upload: 68.7 % uploaded (254803968)
0217.676 (0) Googledrive chunked upload: 69 % uploaded (255852544)
0218.363 (0) Googledrive chunked upload: 69.3 % uploaded (256901120)
0219.043 (0) Googledrive chunked upload: 69.6 % uploaded (257949696)
0219.728 (0) Googledrive chunked upload: 69.9 % uploaded (258998272)
0220.364 (0) Googledrive chunked upload: 70.1 % uploaded (260046848)
0221.045 (0) Googledrive chunked upload: 70.4 % uploaded (261095424)
0221.728 (0) Googledrive chunked upload: 70.7 % uploaded (262144000)
0222.400 (0) Googledrive chunked upload: 71 % uploaded (263192576)
0223.068 (0) Googledrive chunked upload: 71.3 % uploaded (264241152)
0223.752 (0) Googledrive chunked upload: 71.6 % uploaded (265289728)
0224.427 (0) Googledrive chunked upload: 71.8 % uploaded (266338304)
0225.119 (0) Googledrive chunked upload: 72.1 % uploaded (267386880)
0225.680 (0) Googledrive chunked upload: 72.4 % uploaded (268435456)
0226.338 (0) Googledrive chunked upload: 72.7 % uploaded (269484032)
0227.016 (0) Googledrive chunked upload: 73 % uploaded (270532608)
0227.522 (0) Googledrive chunked upload: 73.2 % uploaded (271581184)
0228.212 (0) Googledrive chunked upload: 73.5 % uploaded (272629760)
0228.896 (0) Googledrive chunked upload: 73.8 % uploaded (273678336)
0229.579 (0) Googledrive chunked upload: 74.1 % uploaded (274726912)
0230.291 (0) Googledrive chunked upload: 74.4 % uploaded (275775488)
0230.990 (0) Googledrive chunked upload: 74.7 % uploaded (276824064)
0231.588 (0) Googledrive chunked upload: 74.9 % uploaded (277872640)
0232.276 (0) Googledrive chunked upload: 75.2 % uploaded (278921216)
0232.929 (0) Googledrive chunked upload: 75.5 % uploaded (279969792)
0233.600 (0) Googledrive chunked upload: 75.8 % uploaded (281018368)
0234.289 (0) Googledrive chunked upload: 76.1 % uploaded (282066944)
0234.867 (0) Googledrive chunked upload: 76.4 % uploaded (283115520)
0235.526 (0) Googledrive chunked upload: 76.6 % uploaded (284164096)
0236.220 (0) Googledrive chunked upload: 76.9 % uploaded (285212672)
0236.916 (0) Googledrive chunked upload: 77.2 % uploaded (286261248)
0237.604 (0) Googledrive chunked upload: 77.5 % uploaded (287309824)
0238.283 (0) Googledrive chunked upload: 77.8 % uploaded (288358400)
0238.964 (0) Googledrive chunked upload: 78.1 % uploaded (289406976)
0239.587 (0) Googledrive chunked upload: 78.3 % uploaded (290455552)
0240.208 (0) Googledrive chunked upload: 78.6 % uploaded (291504128)
0240.791 (0) Googledrive chunked upload: 78.9 % uploaded (292552704)
0241.476 (0) Googledrive chunked upload: 79.2 % uploaded (293601280)
0242.160 (0) Googledrive chunked upload: 79.5 % uploaded (294649856)
0242.852 (0) Googledrive chunked upload: 79.8 % uploaded (295698432)
0243.547 (0) Googledrive chunked upload: 80 % uploaded (296747008)
0244.240 (0) Googledrive chunked upload: 80.3 % uploaded (297795584)
0244.916 (0) Googledrive chunked upload: 80.6 % uploaded (298844160)
0245.616 (0) Googledrive chunked upload: 80.9 % uploaded (299892736)
0246.340 (0) Googledrive chunked upload: 81.2 % uploaded (300941312)
0247.020 (0) Googledrive chunked upload: 81.4 % uploaded (301989888)
0247.604 (0) Googledrive chunked upload: 81.7 % uploaded (303038464)
0248.275 (0) Googledrive chunked upload: 82 % uploaded (304087040)
0248.966 (0) Googledrive chunked upload: 82.3 % uploaded (305135616)
0249.486 (0) Googledrive chunked upload: 82.6 % uploaded (306184192)
0250.175 (0) Googledrive chunked upload: 82.9 % uploaded (307232768)
0250.856 (0) Googledrive chunked upload: 83.1 % uploaded (308281344)
0251.539 (0) Googledrive chunked upload: 83.4 % uploaded (309329920)
0252.041 (0) Googledrive chunked upload: 83.7 % uploaded (310378496)
0252.736 (0) Googledrive chunked upload: 84 % uploaded (311427072)
0253.445 (0) Googledrive chunked upload: 84.3 % uploaded (312475648)
0254.083 (0) Googledrive chunked upload: 84.6 % uploaded (313524224)
0254.800 (0) Googledrive chunked upload: 84.8 % uploaded (314572800)
0255.540 (0) The scheduled resumption is within 45 seconds - will reschedule
0255.547 (0) Rescheduling resumption 1: moving to 345 seconds from now (1634022617)
0255.555 (0) To decrease the likelihood of overlaps, increasing resumption interval to: 300 + 45 = 345
0255.556 (0) Googledrive chunked upload: 85.1 % uploaded (315621376)
0256.237 (0) Googledrive chunked upload: 85.4 % uploaded (316669952)
0256.968 (0) Googledrive chunked upload: 85.7 % uploaded (317718528)
0257.677 (0) Googledrive chunked upload: 86 % uploaded (318767104)
0258.358 (0) Googledrive chunked upload: 86.3 % uploaded (319815680)
0258.900 (0) Googledrive chunked upload: 86.5 % uploaded (320864256)
0259.592 (0) Googledrive chunked upload: 86.8 % uploaded (321912832)
0260.271 (0) Googledrive chunked upload: 87.1 % uploaded (322961408)
0260.951 (0) Googledrive chunked upload: 87.4 % uploaded (324009984)
0261.656 (0) Googledrive chunked upload: 87.7 % uploaded (325058560)
0262.340 (0) Googledrive chunked upload: 88 % uploaded (326107136)
0263.024 (0) Googledrive chunked upload: 88.2 % uploaded (327155712)
0263.703 (0) Googledrive chunked upload: 88.5 % uploaded (328204288)
0264.379 (0) Googledrive chunked upload: 88.8 % uploaded (329252864)
0265.052 (0) Googledrive chunked upload: 89.1 % uploaded (330301440)
0265.774 (0) Googledrive chunked upload: 89.4 % uploaded (331350016)
0266.456 (0) Googledrive chunked upload: 89.7 % uploaded (332398592)
0267.139 (0) Googledrive chunked upload: 89.9 % uploaded (333447168)
0267.820 (0) Googledrive chunked upload: 90.2 % uploaded (334495744)
0268.315 (0) Googledrive chunked upload: 90.5 % uploaded (335544320)
0268.991 (0) Googledrive chunked upload: 90.8 % uploaded (336592896)
0269.671 (0) Googledrive chunked upload: 91.1 % uploaded (337641472)
0270.340 (0) Googledrive chunked upload: 91.3 % uploaded (338690048)
0271.016 (0) Googledrive chunked upload: 91.6 % uploaded (339738624)
0271.712 (0) Googledrive chunked upload: 91.9 % uploaded (340787200)
0272.464 (0) Googledrive chunked upload: 92.2 % uploaded (341835776)
0273.143 (0) Googledrive chunked upload: 92.5 % uploaded (342884352)
0273.814 (0) Googledrive chunked upload: 92.8 % uploaded (343932928)
0274.578 (0) Googledrive chunked upload: 93 % uploaded (344981504)
0275.589 (0) Googledrive chunked upload: 93.3 % uploaded (346030080)
0276.274 (0) Googledrive chunked upload: 93.6 % uploaded (347078656)
0277.291 (0) Googledrive chunked upload: 93.9 % uploaded (348127232)
0278.046 (0) Googledrive chunked upload: 94.2 % uploaded (349175808)
0278.812 (0) Googledrive chunked upload: 94.5 % uploaded (350224384)
0279.821 (0) Googledrive chunked upload: 94.7 % uploaded (351272960)
0280.404 (0) Googledrive chunked upload: 95 % uploaded (352321536)
0281.436 (0) Googledrive chunked upload: 95.3 % uploaded (353370112)
0282.104 (0) Googledrive chunked upload: 95.6 % uploaded (354418688)
0283.136 (0) Googledrive chunked upload: 95.9 % uploaded (355467264)
0283.809 (0) Googledrive chunked upload: 96.2 % uploaded (356515840)
0284.839 (0) Googledrive chunked upload: 96.4 % uploaded (357564416)
0285.859 (0) Googledrive chunked upload: 96.7 % uploaded (358612992)
0286.871 (0) Googledrive chunked upload: 97 % uploaded (359661568)
0287.551 (0) Googledrive chunked upload: 97.3 % uploaded (360710144)
0288.552 (0) Googledrive chunked upload: 97.6 % uploaded (361758720)
0289.558 (0) Googledrive chunked upload: 97.9 % uploaded (362807296)
0290.290 (0) Googledrive chunked upload: 98.1 % uploaded (363855872)
0291.378 (0) Googledrive chunked upload: 98.4 % uploaded (364904448)
0292.052 (0) Googledrive chunked upload: 98.7 % uploaded (365953024)
0292.563 (0) Googledrive chunked upload: 99 % uploaded (367001600)
0293.552 (0) Googledrive chunked upload: 99.3 % uploaded (368050176)
0294.559 (0) Googledrive chunked upload: 99.5 % uploaded (369098752)
0295.238 (0) Googledrive chunked upload: 99.8 % uploaded (370147328)
0297.304 (0) Googledrive chunked upload: 100 % uploaded (370147328)
0297.311 (0) Google Drive: OK: Archive backup_2021-10-12-0700_ABC_Group_International_69a300785c9c-uploads.zip uploaded in 242.31 seconds
0297.312 (0) Recording as successfully uploaded: backup_2021-10-12-0700_ABC_Group_International_69a300785c9c-uploads.zip
0297.376 (0) Deleting local file: backup_2021-10-12-0700_ABC_Group_International_69a300785c9c-uploads.zip: OK
0297.868 (0) Google Drive: quota usage: used=3109.2 MB, total=15360 MB, available=12250.8 MB
0297.871 (0) Google Drive: backup_2021-10-12-0700_ABC_Group_International_69a300785c9c-db.gz: Attempting to upload to Google Drive (into folder id: 1tm1S1_TNoPoXKhvpA4QSfe0R_F4JYOkB)
0299.270 (0) Googledrive chunked upload: 91.1 % uploaded (1048576)
0300.689 (0) Googledrive chunked upload: 100 % uploaded (1048576)
0300.699 (0) Google Drive: OK: Archive backup_2021-10-12-0700_ABC_Group_International_69a300785c9c-db.gz uploaded in 2.83 seconds
0300.702 (0) Recording as successfully uploaded: backup_2021-10-12-0700_ABC_Group_International_69a300785c9c-db.gz
0300.707 (0) Deleting local file: backup_2021-10-12-0700_ABC_Group_International_69a300785c9c-db.gz: OK
0300.716 (0) Retain: beginning examination of existing backup sets; user setting: retain_files=1, retain_db=2
0300.719 (0) Number of backup sets in history: 3; groups (db): 1
0300.722 (0) Examining (for databases) backup set with group_id=0, nonce=69a300785c9c, datestamp=1634022017 (Oct 12 2021 07:00:17)
0300.723 (0) This backup set is the backup set just made, so will not be deleted.
0300.723 (0) Examining (for databases) backup set with group_id=0, nonce=ed8e9f07f824, datestamp=1633935470 (Oct 11 2021 06:57:50)
0300.723 (0) This backup set remains non-empty (f=1/d=1); will retain in history
0300.726 (0) Examining (for databases) backup set with group_id=0, nonce=a6c0fcc5bab9, datestamp=1633853942 (Oct 10 2021 08:19:02)
0300.726 (0) 1633853942: db: this set includes a database (backup_2021-10-10-0819_ABC_Group_International_a6c0fcc5bab9-db.gz); db count is now 2
0300.726 (0) 1633853942: db: over retain limit (2); will delete this database
0300.726 (0) Delete file: backup_2021-10-10-0819_ABC_Group_International_a6c0fcc5bab9-db.gz, service=googledrive
0302.995 (0) Google Drive: backup_2021-10-10-0819_ABC_Group_International_a6c0fcc5bab9-db.gz: Deletion successful
0302.999 (0) This backup set is now empty; will remove from history
0303.000 (0) Deleting log file (log.a6c0fcc5bab9.txt)
0303.004 (0) Number of backup sets in history: 2; groups (files): 1
0303.007 (0) Examining (for files) backup set with nonce=69a300785c9c, datestamp=1634022017 (Oct 12 2021 07:00:17)
0303.007 (0) This backup set is the backup set just made, so will not be deleted.
0303.010 (0) This backup set is the backup set just made, so will not be deleted.
0303.010 (0) This backup set is the backup set just made, so will not be deleted.
0303.010 (0) This backup set remains non-empty (f=1/d=1); will retain in history
0303.011 (0) Examining (for files) backup set with nonce=ed8e9f07f824, datestamp=1633935470 (Oct 11 2021 06:57:50)
0303.011 (0) plugins: over retain limit (1); will delete this file entity
0303.011 (0) themes: over retain limit (1); will delete this file entity
0303.011 (0) uploads: over retain limit (1); will delete this file entity
0303.011 (0) Delete file: backup_2021-10-11-0657_ABC_Group_International_ed8e9f07f824-plugins.zip, service=googledrive
0303.013 (0) Delete file: backup_2021-10-11-0657_ABC_Group_International_ed8e9f07f824-themes.zip, service=googledrive
0303.014 (0) Delete file: backup_2021-10-11-0657_ABC_Group_International_ed8e9f07f824-uploads.zip, service=googledrive
0304.366 (0) Google Drive: backup_2021-10-11-0657_ABC_Group_International_ed8e9f07f824-uploads.zip: Deletion successful
0305.205 (0) Google Drive: backup_2021-10-11-0657_ABC_Group_International_ed8e9f07f824-themes.zip: Deletion successful
0306.161 (0) Google Drive: backup_2021-10-11-0657_ABC_Group_International_ed8e9f07f824-plugins.zip: Deletion successful
0306.166 (0) This backup set remains non-empty (f=0/d=1); will retain in history
0306.167 (0) Retain: saving new backup history (sets now: 2) and finishing retain operation
0306.171 (0) Resume backup (69a300785c9c, 0): finish run
0306.175 (0) Decremented the semaphore (fd) by 1
0306.178 (0) Semaphore (fd) unlocked
0306.179 (0) There were no errors in the uploads, so the 'resume' event (1) is being unscheduled
0306.183 (0) Fetching RSS news feed
0307.003 (0) Fetched RSS news feed; result is a: SimplePie
0307.027 (0) Sending email ('Files and database (Full backup)') report (attachments: 0, size: 0 KB) to: lijo@...
0307.054 (0) The backup apparently succeeded and is now complete
