<svg xmlns="http://www.w3.org/2000/svg" xmlns:xlink="http://www.w3.org/1999/xlink" width="38.941" height="63.217" viewBox="0 0 38.941 63.217">
  <defs>
    <linearGradient id="linear-gradient" x1="-0.014" y1="0.491" x2="0.986" y2="0.491" gradientUnits="objectBoundingBox">
      <stop offset="0" stop-color="#ffc853"/>
      <stop offset="0.408" stop-color="#ffbb54"/>
      <stop offset="0.994" stop-color="#ffa157"/>
    </linearGradient>
    <linearGradient id="linear-gradient-2" x1="0.051" y1="0.878" x2="0.814" y2="-0.079" gradientUnits="objectBoundingBox">
      <stop offset="0.152" stop-color="#fff"/>
      <stop offset="0.891" stop-color="#fff" stop-opacity="0"/>
    </linearGradient>
  </defs>
  <g id="Group_3366" data-name="Group 3366" transform="translate(7069.802 9125.449)">
    <path id="Path_7585" data-name="Path 7585" d="M253.192,219.41a19.485,19.485,0,0,0-19.342,19.609c.076,10.754,19.771,43.607,19.771,43.607s19.246-33.121,19.17-43.875A19.458,19.458,0,0,0,253.192,219.41Zm.2,28.2a9.332,9.332,0,1,1,9.265-9.4A9.334,9.334,0,0,1,253.392,247.607Z" transform="translate(-7303.651 -9344.858)" fill="url(#linear-gradient)"/>
    <path id="Path_7586" data-name="Path 7586" d="M244.75,266.984c4.771,9.16,9.38,16.842,9.38,16.842s14.113-24.285,18.12-38.016C267.823,257.2,254.1,267.127,244.75,266.984Z" transform="translate(-7304.151 -9346.067)" opacity="0.62" fill="url(#linear-gradient-2)"/>
  </g>
</svg>
