<svg xmlns="http://www.w3.org/2000/svg" xmlns:xlink="http://www.w3.org/1999/xlink" width="41.934" height="68.074" viewBox="0 0 41.934 68.074">
  <defs>
    <linearGradient id="linear-gradient" x1="-0.003" y1="0.503" x2="0.997" y2="0.503" gradientUnits="objectBoundingBox">
      <stop offset="0" stop-color="#7497f3"/>
      <stop offset="1" stop-color="#856ef4"/>
    </linearGradient>
    <linearGradient id="linear-gradient-2" x1="0.066" y1="0.897" x2="0.83" y2="-0.06" gradientUnits="objectBoundingBox">
      <stop offset="0.152" stop-color="#fff"/>
      <stop offset="0.891" stop-color="#fff" stop-opacity="0"/>
    </linearGradient>
  </defs>
  <g id="Group_3365" data-name="Group 3365" transform="translate(6859.434 9252.681)">
    <path id="Path_7587" data-name="Path 7587" d="M365.458,152.41a20.982,20.982,0,0,0-20.828,21.116c.082,11.58,21.29,46.958,21.29,46.958s20.725-35.665,20.643-47.246A20.966,20.966,0,0,0,365.458,152.41Zm.216,30.374a10.049,10.049,0,1,1,9.977-10.121A10.051,10.051,0,0,1,365.674,182.784Z" transform="translate(-7204.063 -9405.09)" fill="url(#linear-gradient)"/>
    <path id="Path_7588" data-name="Path 7588" d="M355.53,201.621c5.138,9.864,10.1,18.136,10.1,18.136s15.2-26.15,19.513-40.937C380.375,191.089,365.6,201.775,355.53,201.621Z" transform="translate(-7203.763 -9404.363)" opacity="0.62" fill="url(#linear-gradient-2)"/>
  </g>
</svg>
