<?xml version="1.0" encoding="utf-8"?>
<!-- Generator: Adobe Illustrator 23.0.1, SVG Export Plug-In . SVG Version: 6.00 Build 0)  -->
<svg version="1.1" id="Layer_1" xmlns="http://www.w3.org/2000/svg" xmlns:xlink="http://www.w3.org/1999/xlink" x="0px" y="0px"
	 width="48px" height="48px" viewBox="0 0 48 48" enable-background="new 0 0 48 48" xml:space="preserve">
<polygon display="none" fill="#ED3237" points="8.108,44.108 3.827,46.054 1.168,48 1.946,33.665 3.308,32.303 3.308,27.957 
	14.919,17.449 10.573,16.865 10.573,6.097 18.941,3.632 22.184,6.616 26.789,3.892 36,3.114 39.113,0 46.832,20.108 37.103,35.157 
	37.103,44.043 8.303,44.043 "/>
<polygon display="none" fill="#ED3237" points="35.121,37.073 25.17,35.901 18.732,45.658 0.975,44.486 0,38.828 10.926,17.95 
	16.39,14.048 24.39,8.195 37.268,2.342 42.341,14.829 48,29.463 39.024,37.463 "/>
<path display="none" fill="#ED3237" d="M33.416,47.794c-0.749-3.216-0.707-6.186,0.61-8.431c5.824-9.874,9.417-35.42-3.593-39.026
	c-13.009-3.58-20.179,22.439-20.179,29.594c0,1.303-0.831,1.303-2.19,0.39C14.485,47.017,26.025,48.738,33.416,47.794z"/>
<path display="none" fill="#ED3237" d="M7.606,40.518c1.245,0.738,17.249,2.555,23.301,2.86l3.4-8.496l6.365-8.071v-7.638h3.824
	L48,17.17c-1.476-6.208-1.707-12.453-2.772-12.545c-1.785-0.148-9.1,7.758-12.075,13.57c-2.984,5.812-11.632,10.285-19.09,8.948
	c-7.458-1.347-9.986,1.79-11.932,3.127C1.637,30.62,0.853,30.343,0,29.688C0.784,35.554,6.448,39.816,7.606,40.518z"/>
<path fill="#ED3237" d="M24.016,1.063v4.056l-3.38,4.286l-1.805,4.512c0.514,0.025,0.906,0.034,1.095,0.01
	c1.379-0.152,2.756,2.758,2.756,3.826c0,1.073-2.91,10.557-3.674,11.17c-0.554,0.446-10.097,3.591-16.412,5.54
	C3.965,37.306,6.698,42.959,9.158,48c0.424-0.172,0.869-0.372,1.359-0.657c3.011-1.739,6.415-0.867,8.713-1.504
	c2.298-0.632,0.076-2.533,2.06-4.199c1.977-1.661,4.828-0.392,5.856-0.95c1.032-0.554,1.744-4.194,3.486-4.909
	c1.741-0.71,3.642-0.235,3.405-1.739c-0.237-1.504,0.16-6.893,1.823-7.206c1.663-0.319,4.274-2.063,4.352-3.013
	c0.083-0.95,3.407-4.512,4.436-6.251c1.029-1.744,1.11-2.695-0.395-2.934c-1.506-0.235-3.882-4.434-4.512-5.619
	c-0.634-1.19-5.227-0.397-8.95-3.326C29.28,4.502,28.442,2.253,27.908,0l-1.861,1.063H24.016z"/>
</svg>
